fitur,nilai importance
V12,0.17070042674942595
V17,0.15293779141354255
V14,0.1362400667992394
V10,0.0691877616721655
V9,0.06349368842467604
V11,0.051936663878619393
V16,0.0347051403111283
V26,0.031937458871732896
V4,0.0226719185032592
V7,0.020414173462741818
V1,0.02006055423487724
V2,0.019952329424760676
Time,0.01901980828477858
V27,0.01797236156879929
V6,0.017037929533945805
V15,0.015100348807859276
V21,0.014760380116659796
V19,0.013444461960832616
V28,0.012341413173460467
V20,0.012052532634456584
V18,0.01113880855568664
V8,0.010288235108299137
V3,0.009199760699637165
Amount,0.009119336914760238
V23,0.0086698772433119
V5,0.008293929102169154
V24,0.007510335020283204
V22,0.007389819514804688
V13,0.006982074396450599
V25,0.005440613617635854
